<svg width="90" height="40" viewBox="0 0 90 40" fill="none" xmlns="http://www.w3.org/2000/svg">
<path d="M2.74938 2.04871V3.44029H6.16331V5.489H2.74938V8.07888H0V1.57287e-06H6.64543V2.04871H2.74938Z" transform="translate(53.2026 31.0131)" fill="white"/>
<path d="M1.05545 7.26713C0.351814 6.59711 0 5.65651 0 4.44532V7.86437e-07H2.74938V4.36801C2.74938 4.96072 2.85362 5.38592 3.07514 5.65651C3.28362 5.92709 3.59635 6.05594 4.00029 6.05594C4.40423 6.05594 4.71695 5.92709 4.92544 5.65651C5.13392 5.38592 5.25119 4.96072 5.25119 4.36801V7.86437e-07H7.96149V4.44532C7.96149 5.65651 7.60967 6.59711 6.90604 7.26713C6.2024 7.93715 5.22513 8.27215 3.97423 8.27215C2.73635 8.27215 1.75908 7.93715 1.05545 7.26713Z" transform="translate(61.3467 31)" fill="white"/>
<path d="M8.0527 1.57287e-06V8.07888H5.78543L2.68423 4.40666V8.07888H1.59061e-06V1.57287e-06H2.26726L5.36847 3.67222V1.57287e-06H8.0527Z" transform="translate(71.2754 31.0129)" fill="white"/>
<path d="M-3.18122e-06 1.57287e-06H4.02635C4.93847 1.57287e-06 5.74635 0.167505 6.43695 0.489629C7.12755 0.811754 7.67482 1.2885 8.06573 1.89409C8.45664 2.49969 8.63907 3.22125 8.63907 4.04588C8.63907 4.87052 8.44361 5.57919 8.06573 6.19767C7.67482 6.80327 7.14058 7.26713 6.43695 7.60214C5.74635 7.92426 4.93847 8.09177 4.02635 8.09177H-3.18122e-06V1.57287e-06ZM3.90907 5.95286C4.49544 5.95286 4.97756 5.78536 5.32938 5.45035C5.68119 5.11534 5.86361 4.63859 5.86361 4.033C5.86361 3.4274 5.68119 2.95066 5.32938 2.61565C4.97756 2.28064 4.50847 2.11314 3.90907 2.11314H2.74939V5.93997H3.90907V5.95286Z" transform="translate(81.3608 31.0129)" fill="white"/>
<path d="M6.44998 6.67442H3.34878L2.80151 8.07888H-3.97652e-07L3.57029 1.57287e-06H6.28058L9.85088 8.07888H6.99725L6.44998 6.67442ZM5.69422 4.70302L4.89938 2.66719L4.10453 4.70302H5.69422Z" transform="translate(0 31.0131)" fill="white"/>
<path d="M3.50514 6.04306H2.76241V8.07888H0V1.57287e-06H3.93514C4.69089 1.57287e-06 5.3424 0.128851 5.90271 0.373665C6.46301 0.61848 6.89301 0.979257 7.1927 1.43023C7.4924 1.88121 7.64876 2.43526 7.64876 3.04085C7.64876 3.62068 7.51846 4.12319 7.25786 4.5484C6.99725 4.9736 6.60634 5.3215 6.11119 5.5792L7.83119 8.07888H4.88635L3.50514 6.04306ZM4.59968 2.34507C4.41726 2.17756 4.13059 2.10025 3.75272 2.10025H2.74939V3.99434H3.75272C4.13059 3.99434 4.40423 3.91703 4.59968 3.74953C4.78211 3.58202 4.88635 3.35009 4.88635 3.05374C4.88635 2.7445 4.79514 2.51257 4.59968 2.34507Z" transform="translate(10.9844 31.0129)" fill="white"/>
<path d="M6.78876 6.03017V8.07888H1.59061e-06V1.57287e-06H6.64543V2.04871H2.71029V2.98931H6.16331V4.94783H2.71029V6.0044H6.78876V6.03017Z" transform="translate(20.3926 31.0129)" fill="white"/>
<path d="M1.05545 7.26713C0.351816 6.59711 -1.59061e-06 5.65651 -1.59061e-06 4.44532V7.86437e-07H2.74938V4.36801C2.74938 4.96072 2.85363 5.38592 3.07514 5.65651C3.28363 5.92709 3.59635 6.05594 4.00029 6.05594C4.40423 6.05594 4.71696 5.92709 4.92544 5.65651C5.13392 5.38592 5.2512 4.96072 5.2512 4.36801V7.86437e-07H7.96149V4.44532C7.96149 5.65651 7.60967 6.59711 6.90604 7.26713C6.2024 7.93715 5.22513 8.27215 3.97423 8.27215C2.72332 8.27215 1.74605 7.93715 1.05545 7.26713Z" transform="translate(28.875 31)" fill="white"/>
<path d="M7.29695 8.09177L7.27088 4.40666L5.49877 7.35732H4.28695L2.51484 4.52263V8.07888H0V7.86437e-07H2.26726L4.92544 4.30358L7.51846 7.86437e-07H9.78573L9.81178 8.07888H7.29695V8.09177Z" transform="translate(38.8042 31)" fill="white"/>
<path d="M28.0151 23.9661L16.4963 -1.96609e-07H39.5468L37.5793 4.08454H23.0375L25.3829 8.96794H35.1166L33.3184 13.0525H27.3505L30.3084 19.1986L28.0151 23.9661ZM18.4899 23.9661H23.0636L11.5318 -1.96609e-07L1.59061e-06 23.9661C2.77545 23.9661 10.8151 23.9661 13.3821 23.9661L11.5318 19.8815H6.55422L11.5318 9.522L18.4899 23.9661Z" transform="translate(27)" fill="white"/>
</svg>
