<svg width="10" height="10" viewBox="0 0 10 10" fill="none" xmlns="http://www.w3.org/2000/svg">
<rect x="0.25" y="0.25" width="9.5" height="9.5" rx="1.75" stroke="white" stroke-opacity="0.5" stroke-width="0.5"/>
<path d="M0 2L2.5 4.5L6 0" transform="translate(2 2.5)" stroke="white"/>
</svg>
